[  {    "version": "0.0.1",    "type": "post",    "url": "auth/login",    "title": "用户登陆",    "name": "auth_login",    "group": "User",    "parameter": {      "fields": {        "Parameter": [          {            "group": "Parameter",            "type": "String",            "optional": false,            "field": "name",            "description": "<p>姓名.</p>"          },          {            "group": "Parameter",            "type": "String",            "optional": false,            "field": "password",            "description": "<p>密码.</p>"          }        ]      }    },    "success": {      "examples": [        {          "title": "成功返回:",          "content": "     HTTP/1.1 201 OK\n     {\n\t\t  \"result\": {\n\t\t    \"token\": \"eyJ0eXAiOihKRRnreQ-Zw4\",\n\t\t    \"user\": {\n\t\t      \"id\": 7,\n\t\t      \"name\": \"wangle2\",\n\t\t      \"email\": \"285273594@qq.com\",\n\t\t      \"created_at\": \"2018-04-04 02:52:00\",\n\t\t      \"updated_at\": \"2018-04-04 02:52:00\"\n\t\t    }\n\t\t  }\n\t\t}",          "type": "json"        }      ]    },    "filename": "app/Http/Controllers/API/AuthController.php",    "groupTitle": "User"  },  {    "version": "0.0.1",    "type": "post",    "url": "auth/login",    "title": "用户退出",    "name": "auth_login_out",    "group": "User",    "header": {      "fields": {        "Header": [          {            "group": "Header",            "type": "String",            "optional": false,            "field": "Authorization",            "description": "<p>Bearer + token</p>"          }        ]      },      "examples": [        {          "title": "头部列子:",          "content": " {\n\t\"Authorization\": \"Bearer eyJ0eXuHZO9ShwFEGVKskg\"\n }",          "type": "json"        }      ]    },    "success": {      "examples": [        {          "title": "成功返回:",          "content": "     HTTP/1.1 201 OK\n     {\n\t\t\"message\": \"退出登陆成功!\"\n\t }",          "type": "json"        }      ]    },    "filename": "app/Http/Controllers/API/AuthController.php",    "groupTitle": "User"  },  {    "version": "0.0.1",    "type": "get",    "url": "auth/refresh",    "title": "刷新登陆信息",    "name": "auth_refresh",    "group": "User",    "header": {      "fields": {        "Header": [          {            "group": "Header",            "type": "String",            "optional": false,            "field": "Authorization",            "description": "<p>Bearer + token</p>"          }        ]      },      "examples": [        {          "title": "头部列子:",          "content": "{\n \"Authorization\": \"Bearer eyJ0eXuHZO9ShwFEGVKskg\"\n}",          "type": "json"        }      ]    },    "success": {      "examples": [        {          "title": "成功返回:",          "content": "     HTTP/1.1 201 OK\n     {\n\t  \"message\": \"登陆信息刷新成功!\",\n\t  \"data\": \"eyJ0eXAiOiJKvr-s\"\n\t }",          "type": "json"        }      ]    },    "filename": "app/Http/Controllers/API/AuthController.php",    "groupTitle": "User"  },  {    "version": "0.0.1",    "type": "get",    "url": "auth/resetpwd",    "title": "重置密码",    "name": "auth_resetpwd",    "group": "User",    "header": {      "fields": {        "Header": [          {            "group": "Header",            "type": "String",            "optional": false,            "field": "Authorization",            "description": "<p>Bearer + token</p>"          }        ]      },      "examples": [        {          "title": "头部列子:",          "content": "{\n \"Authorization\": \"Bearer eyJ0eXuHZO9ShwFEGVKskg\"\n}",          "type": "json"        }      ]    },    "success": {      "examples": [        {          "title": "成功返回:",          "content": "HTTP/1.1 201 OK\n{\"id\":7,\"name\":\"wangle2\",\"email\":\"285273594@qq.com\",\"created_at\":\"2018-04-04 02:52:00\",\"updated_at\":\"2018-04-14 18:50:48\"}",          "type": "json"        }      ]    },    "filename": "app/Http/Controllers/API/AuthController.php",    "groupTitle": "User"  },  {    "version": "0.0.1",    "type": "get",    "url": "auth/user",    "title": "获取个人信息和用户组",    "name": "auth_user",    "group": "User",    "header": {      "fields": {        "Header": [          {            "group": "Header",            "type": "String",            "optional": false,            "field": "Authorization",            "description": "<p>Bearer + token</p>"          }        ]      },      "examples": [        {          "title": "头部列子:",          "content": "{\n \"Authorization\": \"Bearer eyJ0eXuHZO9ShwFEGVKskg\"\n}",          "type": "json"        }      ]    },    "success": {      "examples": [        {          "title": "成功返回:",          "content": "     HTTP/1.1 201 OK\n     {\n\t  \"data\": {\n\t    \"me\": {\n\t      \"id\": 7,\n\t      \"name\": \"wangle2\",\n\t      \"email\": \"285273594@qq.com\",\n\t      \"created_at\": \"2018-04-04 02:52:00\",\n\t      \"updated_at\": \"2018-04-14 18:33:01\"\n\t    },\n\t    \"roles\": [\n\t      \"user\"\n\t    ]\n\t  }\n\t }",          "type": "json"        }      ]    },    "filename": "app/Http/Controllers/API/AuthController.php",    "groupTitle": "User"  },  {    "version": "0.0.1",    "type": "post",    "url": "user/register",    "title": "注册用户",    "name": "user_register",    "group": "User",    "parameter": {      "fields": {        "Parameter": [          {            "group": "Parameter",            "type": "String",            "optional": false,            "field": "name",            "description": "<p>姓名.</p>"          },          {            "group": "Parameter",            "type": "String",            "optional": false,            "field": "email",            "description": "<p>邮箱.</p>"          },          {            "group": "Parameter",            "type": "String",            "optional": false,            "field": "password",            "description": "<p>密码.</p>"          },          {            "group": "Parameter",            "type": "String",            "optional": false,            "field": "comfirm",            "description": "<p>确定密码.</p>"          }        ]      }    },    "success": {      "fields": {        "201": [          {            "group": "201",            "type": "Object",            "optional": false,            "field": "data",            "description": "<p>{&quot;name&quot;:&quot;wangle4&quot;,&quot;email&quot;:&quot;285273596@qq.com&quot;,&quot;updated_at&quot;:&quot;2018-04-11 15:24:06&quot;,&quot;created_at&quot;:&quot;2018-04-11 15:24:06&quot;,&quot;id&quot;:9}.</p>"          }        ]      }    },    "filename": "app/Http/Controllers/API/UserController.php",    "groupTitle": "User"  },  {    "version": "0.0.1",    "group": "all_______",    "type": "get",    "url": "all",    "title": "通用(必读)",    "name": "all___",    "success": {      "examples": [        {          "title": "传入参数案列",          "content": "        {\n\t\t# ca从from到to并且id不在value里\n\t    \t/message?filter={\"created_at\":{\"from\":\"2016-02-20\",\"to\":\"2016-02-24 23:59:59\"}, \"id\":{\"operation\":\"not in\", \"value\":[2,3,4]}}\n\t\t# id从from到to\n\t \t/message?filter={\"id\":{\"from\":2,\"to\":5}}\n\t \t# id <= value\n\t \t/message?filter={\"id\":{\"to\":5}} or /message?filter={\"id\":{\"operation\":\"<=\",\"value\":5}}\n\t \t# up 为空\n\t \t/message?filter={\"updated_at\":{\"isNull\":true}}\n\t \t# answer 和 value的关系(like,=,<....)\n\t \t/message?filter={\"answer\":{\"operation\":\"like\",\"value\":\"Partial search string\"}}\n\t \t# answer 等于 ***\n\t \t/message?filter={\"answer\":\"Full search string\"}\n\t \t# 关联搜索\n\t \t/message?filter={\"user.name\":\"asd\"}\n\t \t# id= 1\n\t \t/message?filter={\"id\":1}\n\n\t \t# 暂时只支持单字段排序\n\t \t/message?sort=id\n\t \t/message?sort=-id\n\t \t/message?sort=user.name\n\t\t# 关联搜索\n\t \t/message?expand=user \n\t \tresponse: { \"id\": 1, \"message\": \"some message\", \"user_id\": 1, ... \"user\": { \"id\": 1, \"name\": \"Some username\", ... } }\n\t \t}",          "type": "string"        }      ]    },    "filename": "app/Http/Controllers/Controller.php",    "groupTitle": "all_______"  },  {    "version": "0.0.1",    "header": {      "fields": {        "Header": [          {            "group": "Header",            "type": "String",            "optional": false,            "field": "Authorization",            "description": "<p>Bearer + token</p>"          }        ]      },      "examples": [        {          "title": "头部列子:",          "content": "{\n  \"Authorization\": \"Bearer eyJ0eXuHZO9ShwFEGVKskg\"\n}",          "type": "json"        }      ]    },    "group": "test",    "type": "get",    "url": "tests",    "title": "测试获取article",    "name": "test_article",    "parameter": {      "fields": {        "Parameter": [          {            "group": "Parameter",            "type": "Number",            "optional": false,            "field": "per_page",            "defaultValue": "20",            "description": "<p>每页数量.</p>"          },          {            "group": "Parameter",            "type": "Number",            "optional": false,            "field": "page",            "description": "<p>当前页.</p>"          }        ]      }    },    "success": {      "examples": [        {          "title": "成功返回:",          "content": "HTTP/1.1 201 OK\n{\n    \"data\": [\n        {\n            \"id\": 1,\n            \"created_at\": \"2018-04-03 18:05:41\",\n            \"updated_at\": \"2018-04-03 18:05:35\",\n            \"test\": \"test\",\n            \"title\": \"test1\"\n        },\n        {\n            \"id\": 2,\n            \"created_at\": \"2018-04-03 18:05:41\",\n            \"updated_at\": \"2018-04-03 18:05:35\",\n            \"test\": \"test\",\n            \"title\": \"test2\"\n        }\n    ],\n    \"meta\": {\n        \"pagination\": {\n            \"total\": 19,\n            \"count\": 2,\n            \"per_page\": 2,\n            \"current_page\": 1,\n            \"total_pages\": 10,\n            \"links\": {\n            \"next\": \"http:\\/\\/l.t\\/api\\/tests?page=2\"\n            }\n        }\n    }\n}",          "type": "json"        }      ]    },    "filename": "app/Http/Controllers/API/TestController.php",    "groupTitle": "test"  },  {    "type": "get",    "url": "test/:id",    "title": "getArticle",    "version": "0.0.1",    "group": "test",    "name": "test_article_get",    "parameter": {      "fields": {        "Parameter": [          {            "group": "Parameter",            "type": "Number",            "optional": false,            "field": "id",            "description": "<p>Users unique ID.</p>"          }        ]      }    },    "filename": "app/Http/Controllers/API/TestController.php",    "groupTitle": "test"  },  {    "version": "0.0.1",    "header": {      "fields": {        "Header": [          {            "group": "Header",            "type": "String",            "optional": false,            "field": "Authorization",            "description": "<p>Bearer + token</p>"          }        ]      },      "examples": [        {          "title": "头部列子:",          "content": "{\n  \"Authorization\": \"Bearer eyJ0eXuHZO9ShwFEGVKskg\"\n}",          "type": "json"        }      ]    },    "group": "test",    "type": "post",    "url": "tests",    "title": "测试上传article",    "name": "test_article_save",    "parameter": {      "fields": {        "Parameter": [          {            "group": "Parameter",            "type": "String",            "optional": false,            "field": "test",            "description": "<p>test.</p>"          }        ]      }    },    "success": {      "examples": [        {          "title": "成功返回:",          "content": "HTTP/1.1 201 OK\n{\n    \"data\": {\n        \"test\": \"ssss\",\n        \"updated_at\": \"2018-04-11 21:55:25\",\n        \"created_at\": \"2018-04-11 21:55:25\",\n        \"id\": 24,\n        \"title\": \"ssss24\"\n    }\n}",          "type": "json"        }      ]    },    "filename": "app/Http/Controllers/API/TestController.php",    "groupTitle": "test"  },  {    "version": "0.0.1",    "header": {      "fields": {        "Header": [          {            "group": "Header",            "type": "String",            "optional": false,            "field": "Authorization",            "description": "<p>Bearer + token</p>"          }        ]      },      "examples": [        {          "title": "头部列子:",          "content": "{\n  \"Authorization\": \"Bearer eyJ0eXuHZO9ShwFEGVKskg\"\n}",          "type": "json"        }      ]    },    "group": "test",    "type": "put",    "url": "tests",    "title": "测试修改article",    "name": "test_article_update",    "parameter": {      "fields": {        "Parameter": [          {            "group": "Parameter",            "type": "String",            "optional": true,            "field": "test",            "description": "<p>test.</p>"          }        ]      }    },    "success": {      "examples": [        {          "title": "成功返回:",          "content": "HTTP/1.1 201 OK\n{\n    \"data\": {\n        \"test\": \"ssss\",\n        \"updated_at\": \"2018-04-11 21:55:25\",\n        \"created_at\": \"2018-04-11 21:55:25\",\n        \"id\": 24,\n        \"title\": \"ssss24\"\n    }\n}",          "type": "json"        }      ]    },    "filename": "app/Http/Controllers/API/TestController.php",    "groupTitle": "test"  },  {    "version": "0.0.1",    "header": {      "fields": {        "Header": [          {            "group": "Header",            "type": "String",            "optional": false,            "field": "Authorization",            "description": "<p>Bearer + token</p>"          }        ]      },      "examples": [        {          "title": "头部列子:",          "content": "{\n    \"Authorization\": \"Bearer eyJ0eXuHZO9ShwFEGVKskg\"\n}",          "type": "json"        }      ]    },    "group": "test",    "type": "get",    "url": "test/needauth",    "title": "测试needauth",    "name": "test_needauth",    "success": {      "examples": [        {          "title": "成功返回:",          "content": "HTTP/1.1 201 OK\n\"user\": {\n    \"id\": 7,\n    \"name\": \"wangle2\",\n    \"email\": \"285273594@qq.com\",\n    \"created_at\": \"2018-04-04 02:52:00\",\n    \"updated_at\": \"2018-04-04 02:52:00\"\n}",          "type": "json"        }      ]    },    "filename": "app/Http/Controllers/API/TestController.php",    "groupTitle": "test"  },  {    "version": "0.0.1",    "header": {      "fields": {        "Header": [          {            "group": "Header",            "type": "String",            "optional": false,            "field": "Authorization",            "description": "<p>Bearer + token</p>"          }        ]      },      "examples": [        {          "title": "头部列子:",          "content": "{\n  \"Authorization\": \"Bearer eyJ0eXAiOCI6NZO9ShwFEGVKskg\"\n}",          "type": "json"        }      ]    },    "group": "test",    "type": "post",    "url": "test/qiniu",    "title": "测试qiniu云",    "name": "test_qiniu",    "parameter": {      "fields": {        "Parameter": [          {            "group": "Parameter",            "type": "File",            "optional": false,            "field": "file",            "description": "<p>需要缓存的内容.</p>"          }        ]      }    },    "success": {      "examples": [        {          "title": "成功返回:",          "content": "HTTP/1.1 201 OK\npic/oNWGBOzQihjUZBzltOrrKWLS87s4gghPsM52gnpq.jpeg",          "type": "string"        }      ]    },    "filename": "app/Http/Controllers/API/TestController.php",    "groupTitle": "test"  },  {    "version": "0.0.1",    "header": {      "fields": {        "Header": [          {            "group": "Header",            "type": "String",            "optional": false,            "field": "Authorization",            "description": "<p>Bearer + token</p>"          }        ]      },      "examples": [        {          "title": "头部列子:",          "content": "{\n  \"Authorization\": \"Bearer eyJ0eXuHZO9ShwFEGVKskg\"\n}",          "type": "json"        }      ]    },    "group": "test",    "type": "get",    "url": "test/redis",    "title": "测试redis",    "name": "test_redis",    "parameter": {      "fields": {        "Parameter": [          {            "group": "Parameter",            "type": "String",            "optional": false,            "field": "string",            "description": "<p>需要缓存的内容.</p>"          }        ]      }    },    "success": {      "examples": [        {          "title": "成功返回:",          "content": "HTTP/1.1 201 OK\nstring",          "type": "string"        }      ]    },    "filename": "app/Http/Controllers/API/TestController.php",    "groupTitle": "test"  }]
